sim/wave.vcd
$version Generated by VerilatedVcd $end
$timescale 1ps $end

 $scope module TOP $end
  $var wire  1 z clock $end
  $var wire 64 +! io_dmem_addr [63:0] $end
  $var wire  1 /! io_dmem_en $end
  $var wire 64 ~ io_dmem_rdata [63:0] $end
  $var wire 64 -! io_dmem_wdata [63:0] $end
  $var wire  1 0! io_dmem_we $end
  $var wire  1 q! io_err $end
  $var wire 64 1! io_gpr_0 [63:0] $end
  $var wire 64 3! io_gpr_1 [63:0] $end
  $var wire 64 E! io_gpr_10 [63:0] $end
  $var wire 64 G! io_gpr_11 [63:0] $end
  $var wire 64 I! io_gpr_12 [63:0] $end
  $var wire 64 K! io_gpr_13 [63:0] $end
  $var wire 64 M! io_gpr_14 [63:0] $end
  $var wire 64 O! io_gpr_15 [63:0] $end
  $var wire 64 Q! io_gpr_16 [63:0] $end
  $var wire 64 S! io_gpr_17 [63:0] $end
  $var wire 64 U! io_gpr_18 [63:0] $end
  $var wire 64 W! io_gpr_19 [63:0] $end
  $var wire 64 5! io_gpr_2 [63:0] $end
  $var wire 64 Y! io_gpr_20 [63:0] $end
  $var wire 64 [! io_gpr_21 [63:0] $end
  $var wire 64 ]! io_gpr_22 [63:0] $end
  $var wire 64 _! io_gpr_23 [63:0] $end
  $var wire 64 a! io_gpr_24 [63:0] $end
  $var wire 64 c! io_gpr_25 [63:0] $end
  $var wire 64 e! io_gpr_26 [63:0] $end
  $var wire 64 g! io_gpr_27 [63:0] $end
  $var wire 64 i! io_gpr_28 [63:0] $end
  $var wire 64 k! io_gpr_29 [63:0] $end
  $var wire 64 7! io_gpr_3 [63:0] $end
  $var wire 64 m! io_gpr_30 [63:0] $end
  $var wire 64 o! io_gpr_31 [63:0] $end
  $var wire 64 9! io_gpr_4 [63:0] $end
  $var wire 64 ;! io_gpr_5 [63:0] $end
  $var wire 64 =! io_gpr_6 [63:0] $end
  $var wire 64 ?! io_gpr_7 [63:0] $end
  $var wire 64 A! io_gpr_8 [63:0] $end
  $var wire 64 C! io_gpr_9 [63:0] $end
  $var wire 64 %! io_imem_addr [63:0] $end
  $var wire  1 )! io_imem_en $end
  $var wire 64 | io_imem_rdata [63:0] $end
  $var wire 64 '! io_imem_wdata [63:0] $end
  $var wire  1 *! io_imem_we $end
  $var wire 32 $! io_inst [31:0] $end
  $var wire 64 "! io_pc [63:0] $end
  $var wire  1 { reset $end
  $scope module Cpu $end
   $var wire 64 +! aluRes [63:0] $end
   $var wire  1 z clock $end
   $var wire 32 ' inst [31:0] $end
   $var wire 64 +! io_dmem_addr [63:0] $end
   $var wire  1 /! io_dmem_en $end
   $var wire 64 ~ io_dmem_rdata [63:0] $end
   $var wire 64 -! io_dmem_wdata [63:0] $end
   $var wire  1 /! io_dmem_we $end
   $var wire  1 q! io_err $end
   $var wire 64 1! io_gpr_0 [63:0] $end
   $var wire 64 3! io_gpr_1 [63:0] $end
   $var wire 64 E! io_gpr_10 [63:0] $end
   $var wire 64 G! io_gpr_11 [63:0] $end
   $var wire 64 I! io_gpr_12 [63:0] $end
   $var wire 64 K! io_gpr_13 [63:0] $end
   $var wire 64 M! io_gpr_14 [63:0] $end
   $var wire 64 O! io_gpr_15 [63:0] $end
   $var wire 64 Q! io_gpr_16 [63:0] $end
   $var wire 64 S! io_gpr_17 [63:0] $end
   $var wire 64 U! io_gpr_18 [63:0] $end
   $var wire 64 W! io_gpr_19 [63:0] $end
   $var wire 64 5! io_gpr_2 [63:0] $end
   $var wire 64 Y! io_gpr_20 [63:0] $end
   $var wire 64 [! io_gpr_21 [63:0] $end
   $var wire 64 ]! io_gpr_22 [63:0] $end
   $var wire 64 _! io_gpr_23 [63:0] $end
   $var wire 64 a! io_gpr_24 [63:0] $end
   $var wire 64 c! io_gpr_25 [63:0] $end
   $var wire 64 e! io_gpr_26 [63:0] $end
   $var wire 64 g! io_gpr_27 [63:0] $end
   $var wire 64 i! io_gpr_28 [63:0] $end
   $var wire 64 k! io_gpr_29 [63:0] $end
   $var wire 64 7! io_gpr_3 [63:0] $end
   $var wire 64 m! io_gpr_30 [63:0] $end
   $var wire 64 o! io_gpr_31 [63:0] $end
   $var wire 64 9! io_gpr_4 [63:0] $end
   $var wire 64 ;! io_gpr_5 [63:0] $end
   $var wire 64 =! io_gpr_6 [63:0] $end
   $var wire 64 ?! io_gpr_7 [63:0] $end
   $var wire 64 A! io_gpr_8 [63:0] $end
   $var wire 64 C! io_gpr_9 [63:0] $end
   $var wire 64 %! io_imem_addr [63:0] $end
   $var wire  1 )! io_imem_en $end
   $var wire 64 | io_imem_rdata [63:0] $end
   $var wire 64 '! io_imem_wdata [63:0] $end
   $var wire  1 *! io_imem_we $end
   $var wire 32 $! io_inst [31:0] $end
   $var wire 64 "! io_pc [63:0] $end
   $var wire 64 % ipc [63:0] $end
   $var wire 64 # pc [63:0] $end
   $var wire  1 { reset $end
   $scope module alu $end
    $var wire  4 ( io_opcode [3:0] $end
    $var wire 64 - io_out [63:0] $end
    $var wire 64 ) io_ua [63:0] $end
    $var wire 64 + io_ub [63:0] $end
   $upscope $end
   $scope module decode $end
    $var wire 64 / io_imm [63:0] $end
    $var wire 32 ' io_inst [31:0] $end
    $var wire  4 ( io_sig_aluop [3:0] $end
    $var wire  1 1 io_sig_asel $end
    $var wire  1 2 io_sig_bsel $end
    $var wire  1 4 io_sig_cut32 $end
    $var wire  1 q! io_sig_err $end
    $var wire  1 /! io_sig_memEn $end
    $var wire  1 /! io_sig_memWe $end
    $var wire  2 r! io_sig_osel [1:0] $end
    $var wire  1 3 io_sig_rdWe $end
   $upscope $end
   $scope module regfile $end
    $var wire  1 z clock $end
    $var wire 64 1! io_gpr_0 [63:0] $end
    $var wire 64 3! io_gpr_1 [63:0] $end
    $var wire 64 E! io_gpr_10 [63:0] $end
    $var wire 64 G! io_gpr_11 [63:0] $end
    $var wire 64 I! io_gpr_12 [63:0] $end
    $var wire 64 K! io_gpr_13 [63:0] $end
    $var wire 64 M! io_gpr_14 [63:0] $end
    $var wire 64 O! io_gpr_15 [63:0] $end
    $var wire 64 Q! io_gpr_16 [63:0] $end
    $var wire 64 S! io_gpr_17 [63:0] $end
    $var wire 64 U! io_gpr_18 [63:0] $end
    $var wire 64 W! io_gpr_19 [63:0] $end
    $var wire 64 5! io_gpr_2 [63:0] $end
    $var wire 64 Y! io_gpr_20 [63:0] $end
    $var wire 64 [! io_gpr_21 [63:0] $end
    $var wire 64 ]! io_gpr_22 [63:0] $end
    $var wire 64 _! io_gpr_23 [63:0] $end
    $var wire 64 a! io_gpr_24 [63:0] $end
    $var wire 64 c! io_gpr_25 [63:0] $end
    $var wire 64 e! io_gpr_26 [63:0] $end
    $var wire 64 g! io_gpr_27 [63:0] $end
    $var wire 64 i! io_gpr_28 [63:0] $end
    $var wire 64 k! io_gpr_29 [63:0] $end
    $var wire 64 7! io_gpr_3 [63:0] $end
    $var wire 64 m! io_gpr_30 [63:0] $end
    $var wire 64 o! io_gpr_31 [63:0] $end
    $var wire 64 9! io_gpr_4 [63:0] $end
    $var wire 64 ;! io_gpr_5 [63:0] $end
    $var wire 64 =! io_gpr_6 [63:0] $end
    $var wire 64 ?! io_gpr_7 [63:0] $end
    $var wire 64 A! io_gpr_8 [63:0] $end
    $var wire 64 C! io_gpr_9 [63:0] $end
    $var wire  5 7 io_rd_addr [4:0] $end
    $var wire 64 s! io_rd_data [63:0] $end
    $var wire  1 3 io_rd_we $end
    $var wire  5 5 io_rs1_addr [4:0] $end
    $var wire 64 8 io_rs1_data [63:0] $end
    $var wire  5 6 io_rs2_addr [4:0] $end
    $var wire 64 -! io_rs2_data [63:0] $end
    $var wire 64 : regs_0 [63:0] $end
    $var wire 64 < regs_1 [63:0] $end
    $var wire 64 N regs_10 [63:0] $end
    $var wire 64 P regs_11 [63:0] $end
    $var wire 64 R regs_12 [63:0] $end
    $var wire 64 T regs_13 [63:0] $end
    $var wire 64 V regs_14 [63:0] $end
    $var wire 64 X regs_15 [63:0] $end
    $var wire 64 Z regs_16 [63:0] $end
    $var wire 64 \ regs_17 [63:0] $end
    $var wire 64 ^ regs_18 [63:0] $end
    $var wire 64 ` regs_19 [63:0] $end
    $var wire 64 > regs_2 [63:0] $end
    $var wire 64 b regs_20 [63:0] $end
    $var wire 64 d regs_21 [63:0] $end
    $var wire 64 f regs_22 [63:0] $end
    $var wire 64 h regs_23 [63:0] $end
    $var wire 64 j regs_24 [63:0] $end
    $var wire 64 l regs_25 [63:0] $end
    $var wire 64 n regs_26 [63:0] $end
    $var wire 64 p regs_27 [63:0] $end
    $var wire 64 r regs_28 [63:0] $end
    $var wire 64 t regs_29 [63:0] $end
    $var wire 64 @ regs_3 [63:0] $end
    $var wire 64 v regs_30 [63:0] $end
    $var wire 64 x regs_31 [63:0] $end
    $var wire 64 B regs_4 [63:0] $end
    $var wire 64 D regs_5 [63:0] $end
    $var wire 64 F regs_6 [63:0] $end
    $var wire 64 H regs_7 [63:0] $end
    $var wire 64 J regs_8 [63:0] $end
    $var wire 64 L regs_9 [63:0] $end
   $upscope $end
  $upscope $end
 $upscope $end
$enddefinitions $end


#0
b1010011101100000011011110101001110111101000010110010111011100010 #
b1011001000010010001110011000000010000010011111111111000101100110 %
b11101111111111000001101100011111 '
b0000 (
b0000000110100100010100001010111100100000101110001001010111010111 )
b1111111111111111111111111111111111111111111111111111111011111111 +
b0000000110100100010100001010111100100000101110001001010011010110 -
b1111111111111111111111111111111111111111111111111111111011111111 /
01
12
03
04
b11000 5
b11111 6
b10110 7
b0000000110100100010100001010111100100000101110001001010111010111 8
b0010111100110101011101111100001010000110110010001010100011110011 :
b0100001100000011101001010000011111001110101100110010110011001001 <
b0100001101111100000101111001110010010011110111010111111011101101 >
b0011010100110111010111100001111100011011101110010110010111001010 @
b0101110011110101001100101101001001111100010010011101010101011101 B
b0100111010101100100011111110010110101110011000010011010001000111 D
b1101001010100111000100011110111001000011111001011110110100100100 F
b1011101111110011100111011000000011000011010010011011001011101111 H
b1110100101001000110110010000010101011101010101001011010010101001 J
b1000110011111001001001111101001011011011111010001101100101101101 L
b0111111100011001110111100100110001100110000010000011011100111001 N
b0011111010100100101111111011001001001110111100101001101001111000 P
b1001101100010000011011111111100100001010100001111110100011101010 R
b1001010001000110100111010011000101111101111001110011100011000010 T
b1010101001110001010100010100100111011011011100110000000101010100 V
b0000110010001111101111100010110100100010101010100100100101010100 X
b0110000001101011101100110010110101101000101000001100101100100011 Z
b0010001010001111101001011010000011101000011000111101000110011101 \
b1110101100111100110010100011011100100111000010000100001110110011 ^
b0010111111000011111011101101001100111001101111000111111110101101 `
b0010111010111111000110100000010000110100111010010101000011010101 b
b1000111011101110100011000101111011001110101110010111101100101110 d
b0011000101101100011110011000100000001010100001111011100011001111 f
b1001101100001001101000011111101100011111111111111011001100000101 h
b0000000110100100010100001010111100100000101110001001010111010111 j
b0000110111110111100001100101000000101111110110100000010010001001 l
b1000010000101000000111010101101111011010110010000100001011110110 n
b1011100110010110010011001011100010000110010110001001111110101111 p
b0100001100111010101011010101010110000000111110011111010111101111 r
b0111000111001000110110101111101001011011111000000010011110011101 t
b1011100100011110100011000100010010010100111111100100001100111111 v
b0101000011001010000000000000000111011011000111001100111011001111 x
0z
0{
b1110110101010111101011001011100110011110111111011101010100000010 |
b1100000100011101111000101001110001001000110000101110000011100100 ~
b1010011101100000011011110101001110111101000010110010111011100010 "!
b11101111111111000001101100011111 $!
b1010011101100000011011110101001110111101000010110010111011100000 %!
b0000000000000000000000000000000000000000000000000000000000000000 '!
1)!
0*!
b0000000110100100010100001010111100100000101110001001010011010110 +!
b0101000011001010000000000000000111011011000111001100111011001111 -!
0/!
00!
b0010111100110101011101111100001010000110110010001010100011110011 1!
b0100001100000011101001010000011111001110101100110010110011001001 3!
b0100001101111100000101111001110010010011110111010111111011101101 5!
b0011010100110111010111100001111100011011101110010110010111001010 7!
b0101110011110101001100101101001001111100010010011101010101011101 9!
b0100111010101100100011111110010110101110011000010011010001000111 ;!
b1101001010100111000100011110111001000011111001011110110100100100 =!
b1011101111110011100111011000000011000011010010011011001011101111 ?!
b1110100101001000110110010000010101011101010101001011010010101001 A!
b1000110011111001001001111101001011011011111010001101100101101101 C!
b0111111100011001110111100100110001100110000010000011011100111001 E!
b0011111010100100101111111011001001001110111100101001101001111000 G!
b1001101100010000011011111111100100001010100001111110100011101010 I!
b1001010001000110100111010011000101111101111001110011100011000010 K!
b1010101001110001010100010100100111011011011100110000000101010100 M!
b0000110010001111101111100010110100100010101010100100100101010100 O!
b0110000001101011101100110010110101101000101000001100101100100011 Q!
b0010001010001111101001011010000011101000011000111101000110011101 S!
b1110101100111100110010100011011100100111000010000100001110110011 U!
b0010111111000011111011101101001100111001101111000111111110101101 W!
b0010111010111111000110100000010000110100111010010101000011010101 Y!
b1000111011101110100011000101111011001110101110010111101100101110 [!
b0011000101101100011110011000100000001010100001111011100011001111 ]!
b1001101100001001101000011111101100011111111111111011001100000101 _!
b0000000110100100010100001010111100100000101110001001010111010111 a!
b0000110111110111100001100101000000101111110110100000010010001001 c!
b1000010000101000000111010101101111011010110010000100001011110110 e!
b1011100110010110010011001011100010000110010110001001111110101111 g!
b0100001100111010101011010101010110000000111110011111010111101111 i!
b0111000111001000110110101111101001011011111000000010011110011101 k!
b1011100100011110100011000100010010010100111111100100001100111111 m!
b0101000011001010000000000000000111011011000111001100111011001111 o!
1q!
b00 r!
b0000000110100100010100001010111100100000101110001001010011010110 s!
#1
b0000000000000000000000000000000010000000000000000000000000000000 #
b1010011101100000011011110101001110111101000010110010111011100010 %
b00000000000000000000000000010011 '
b0000000000000000000000000000000000000000000000000000000000000000 )
b0000000000000000000000000000000000000000000000000000000000000000 +
b0000000000000000000000000000000000000000000000000000000000000000 -
b0000000000000000000000000000000000000000000000000000000000000000 /
13
b00000 5
b00000 6
b00000 7
b0000000000000000000000000000000000000000000000000000000000000000 8
1z
1{
b0000000000000000000000000000000010000000000000000000000000000000 "!
b00000000000000000000000000010011 $!
b0000000000000000000000000000000010000000000000000000000000000000 %!
b0000000000000000000000000000000000000000000000000000000000000000 +!
b0000000000000000000000000000000000000000000000000000000000000000 -!
0q!
b0000000000000000000000000000000000000000000000000000000000000000 s!
#2
0z
#3
b0000000000000000000000000000000010000000000000000000000000000100 #
b0000000000000000000000000000000010000000000000000000000000000000 %
b00000000000000000000000010010111 '
b0000000000000000000000000000000010000000000000000000000000000000 )
b0000000000000000000000000000000010000000000000000000000000000000 -
11
b00001 7
1z
0{
b0000000000010000000000010001001100000000000000000000000010010111 |
b0000000000000000000000000000000010000000000000000000000000000100 "!
b00000000000000000000000010010111 $!
b0000000000000000000000000000000010000000000000000000000000000000 +!
b0000000000000000000000000000000010000000000000000000000000000000 s!
#4
0z
b0000000000000000000000000000000000000000000000000000000000000000 ~
#5
b0000000000000000000000000000000010000000000000000000000000001000 #
b0000000000000000000000000000000010000000000000000000000000000100 %
b00000000000100000000000100010011 '
b0000000000000000000000000000000000000000000000000000000000000000 )
b0000000000000000000000000000000000000000000000000000000000000001 +
b0000000000000000000000000000000000000000000000000000000000000001 -
b0000000000000000000000000000000000000000000000000000000000000001 /
01
b00001 6
b00010 7
b0000000000000000000000000000000010000000000000000000000000000000 <
1z
b0000000000000000000000000000000010000000000000000000000000001000 "!
b00000000000100000000000100010011 $!
b0000000000000000000000000000000010000000000000000000000000001000 %!
b0000000000000000000000000000000000000000000000000000000000000001 +!
b0000000000000000000000000000000010000000000000000000000000000000 -!
b0000000000000000000000000000000010000000000000000000000000000000 3!
b0000000000000000000000000000000000000000000000000000000000000001 s!
#6
0z
#7
b0000000000000000000000000000000010000000000000000000000000001100 #
b0000000000000000000000000000000010000000000000000000000000001000 %
b00000000000000000001000110110111 '
b1110 (
b0000000000000000000000000000000000000000000000000001000000000000 +
b0000000000000000000000000000000000000000000000000001000000000000 -
b0000000000000000000000000000000000000000000000000001000000000000 /
b00000 6
b00011 7
b0000000000000000000000000000000000000000000000000000000000000001 >
1z
b1000000000000001100000011001101100000000000000000001000110110111 |
b0000000000000000000000000000000010000000000000000000000000001100 "!
b00000000000000000001000110110111 $!
b0000000000000000000000000000000000000000000000000001000000000000 +!
b0000000000000000000000000000000000000000000000000000000000000000 -!
b0000000000000000000000000000000000000000000000000000000000000001 5!
b0000000000000000000000000000000000000000000000000001000000000000 s!
#8
0z
#9
b0000000000000000000000000000000010000000000000000000000000010000 #
b0000000000000000000000000000000010000000000000000000000000001100 %
b10000000000000011000000110011011 '
b0000 (
b0000000000000000000000000000000000000000000000000001000000000000 )
b1111111111111111111111111111111111111111111111111111100000000000 +
b0000000000000000000000000000000000000000000000000000100000000000 -
b1111111111111111111111111111111111111111111111111111100000000000 /
14
b00011 5
b0000000000000000000000000000000000000000000000000001000000000000 8
b0000000000000000000000000000000000000000000000000001000000000000 @
1z
b0000000000000000000000000000000010000000000000000000000000010000 "!
b10000000000000011000000110011011 $!
b0000000000000000000000000000000010000000000000000000000000010000 %!
b0000000000000000000000000000000000000000000000000000100000000000 +!
b0000000000000000000000000000000000000000000000000001000000000000 7!
b0000000000000000000000000000000000000000000000000000100000000000 s!
#10
0z
#11
b0000000000000000000000000000000010000000000000000000000000010100 #
b0000000000000000000000000000000010000000000000000000000000010000 %
b00000000001100001000000110110011 '
b0000000000000000000000000000000010000000000000000000000000000000 )
b0000000000000000000000000000000000000000000000000000100000000000 +
b0000000000000000000000000000000010000000000000000000100000000000 -
b0000000000000000000000000000000000000000000000000000000000000000 /
02
04
b00001 5
b00011 6
b0000000000000000000000000000000010000000000000000000000000000000 8
b0000000000000000000000000000000000000000000000000000100000000000 @
1z
b0000000000100001101100000010001100000000001100001000000110110011 |
b0000000000000000000000000000000010000000000000000000000000010100 "!
b00000000001100001000000110110011 $!
b0000000000000000000000000000000010000000000000000000100000000000 +!
b0000000000000000000000000000000000000000000000000000100000000000 -!
b0000000000000000000000000000000000000000000000000000100000000000 7!
b0000000000000000000000000000000010000000000000000000100000000000 s!
#12
0z
#13
b0000000000000000000000000000000010000000000000000000000000011000 #
b0000000000000000000000000000000010000000000000000000000000010100 %
b00000000001000011011000000100011 '
b0000000000000000000000000000000010000000000000000000100000000000 )
b0000000000000000000000000000000000000000000000000000000000000000 +
12
03
b00011 5
b00010 6
b00000 7
b0000000000000000000000000000000010000000000000000000100000000000 8
b0000000000000000000000000000000010000000000000000000100000000000 @
1z
b0000000000000000000000000000000010000000000000000000000000011000 "!
b00000000001000011011000000100011 $!
b0000000000000000000000000000000010000000000000000000000000011000 %!
b0000000000000000000000000000000000000000000000000000000000000001 -!
1/!
10!
b0000000000000000000000000000000010000000000000000000100000000000 7!
b01 r!
b0000000000000000000000000000000000000000000000000000000000000000 s!
#14
0z
b0000000000000000000000000000000000000000000000000000000000000001 ~
b0000000000000000000000000000000000000000000000000000000000000001 s!
