sim/wave.vcd
$version Generated by VerilatedVcd $end
$timescale 1ps $end

 $scope module TOP $end
  $var wire  1 ~ clock $end
  $var wire 64 /! io_dmem_addr [63:0] $end
  $var wire  1 3! io_dmem_en $end
  $var wire 64 $! io_dmem_rdata [63:0] $end
  $var wire 64 1! io_dmem_wdata [63:0] $end
  $var wire  1 4! io_dmem_we $end
  $var wire  1 u! io_err $end
  $var wire 64 5! io_gpr_0 [63:0] $end
  $var wire 64 7! io_gpr_1 [63:0] $end
  $var wire 64 I! io_gpr_10 [63:0] $end
  $var wire 64 K! io_gpr_11 [63:0] $end
  $var wire 64 M! io_gpr_12 [63:0] $end
  $var wire 64 O! io_gpr_13 [63:0] $end
  $var wire 64 Q! io_gpr_14 [63:0] $end
  $var wire 64 S! io_gpr_15 [63:0] $end
  $var wire 64 U! io_gpr_16 [63:0] $end
  $var wire 64 W! io_gpr_17 [63:0] $end
  $var wire 64 Y! io_gpr_18 [63:0] $end
  $var wire 64 [! io_gpr_19 [63:0] $end
  $var wire 64 9! io_gpr_2 [63:0] $end
  $var wire 64 ]! io_gpr_20 [63:0] $end
  $var wire 64 _! io_gpr_21 [63:0] $end
  $var wire 64 a! io_gpr_22 [63:0] $end
  $var wire 64 c! io_gpr_23 [63:0] $end
  $var wire 64 e! io_gpr_24 [63:0] $end
  $var wire 64 g! io_gpr_25 [63:0] $end
  $var wire 64 i! io_gpr_26 [63:0] $end
  $var wire 64 k! io_gpr_27 [63:0] $end
  $var wire 64 m! io_gpr_28 [63:0] $end
  $var wire 64 o! io_gpr_29 [63:0] $end
  $var wire 64 ;! io_gpr_3 [63:0] $end
  $var wire 64 q! io_gpr_30 [63:0] $end
  $var wire 64 s! io_gpr_31 [63:0] $end
  $var wire 64 =! io_gpr_4 [63:0] $end
  $var wire 64 ?! io_gpr_5 [63:0] $end
  $var wire 64 A! io_gpr_6 [63:0] $end
  $var wire 64 C! io_gpr_7 [63:0] $end
  $var wire 64 E! io_gpr_8 [63:0] $end
  $var wire 64 G! io_gpr_9 [63:0] $end
  $var wire 64 )! io_imem_addr [63:0] $end
  $var wire  1 -! io_imem_en $end
  $var wire 64 "! io_imem_rdata [63:0] $end
  $var wire 64 +! io_imem_wdata [63:0] $end
  $var wire  1 .! io_imem_we $end
  $var wire 32 (! io_inst [31:0] $end
  $var wire 64 &! io_pc [63:0] $end
  $var wire  1 !! reset $end
  $scope module Cpu $end
   $var wire  1 ~ clock $end
   $var wire 32 ' inst [31:0] $end
   $var wire 64 /! io_dmem_addr [63:0] $end
   $var wire  1 3! io_dmem_en $end
   $var wire 64 $! io_dmem_rdata [63:0] $end
   $var wire 64 1! io_dmem_wdata [63:0] $end
   $var wire  1 4! io_dmem_we $end
   $var wire  1 u! io_err $end
   $var wire 64 5! io_gpr_0 [63:0] $end
   $var wire 64 7! io_gpr_1 [63:0] $end
   $var wire 64 I! io_gpr_10 [63:0] $end
   $var wire 64 K! io_gpr_11 [63:0] $end
   $var wire 64 M! io_gpr_12 [63:0] $end
   $var wire 64 O! io_gpr_13 [63:0] $end
   $var wire 64 Q! io_gpr_14 [63:0] $end
   $var wire 64 S! io_gpr_15 [63:0] $end
   $var wire 64 U! io_gpr_16 [63:0] $end
   $var wire 64 W! io_gpr_17 [63:0] $end
   $var wire 64 Y! io_gpr_18 [63:0] $end
   $var wire 64 [! io_gpr_19 [63:0] $end
   $var wire 64 9! io_gpr_2 [63:0] $end
   $var wire 64 ]! io_gpr_20 [63:0] $end
   $var wire 64 _! io_gpr_21 [63:0] $end
   $var wire 64 a! io_gpr_22 [63:0] $end
   $var wire 64 c! io_gpr_23 [63:0] $end
   $var wire 64 e! io_gpr_24 [63:0] $end
   $var wire 64 g! io_gpr_25 [63:0] $end
   $var wire 64 i! io_gpr_26 [63:0] $end
   $var wire 64 k! io_gpr_27 [63:0] $end
   $var wire 64 m! io_gpr_28 [63:0] $end
   $var wire 64 o! io_gpr_29 [63:0] $end
   $var wire 64 ;! io_gpr_3 [63:0] $end
   $var wire 64 q! io_gpr_30 [63:0] $end
   $var wire 64 s! io_gpr_31 [63:0] $end
   $var wire 64 =! io_gpr_4 [63:0] $end
   $var wire 64 ?! io_gpr_5 [63:0] $end
   $var wire 64 A! io_gpr_6 [63:0] $end
   $var wire 64 C! io_gpr_7 [63:0] $end
   $var wire 64 E! io_gpr_8 [63:0] $end
   $var wire 64 G! io_gpr_9 [63:0] $end
   $var wire 64 )! io_imem_addr [63:0] $end
   $var wire  1 -! io_imem_en $end
   $var wire 64 "! io_imem_rdata [63:0] $end
   $var wire 64 +! io_imem_wdata [63:0] $end
   $var wire  1 .! io_imem_we $end
   $var wire 32 (! io_inst [31:0] $end
   $var wire 64 &! io_pc [63:0] $end
   $var wire 64 % ipc [63:0] $end
   $var wire 64 # pc [63:0] $end
   $var wire 64 v! res [63:0] $end
   $var wire  1 !! reset $end
   $scope module alu $end
    $var wire  1 0 eq $end
    $var wire  6 - io_cmp [5:0] $end
    $var wire  4 ( io_opcode [3:0] $end
    $var wire 64 /! io_out [63:0] $end
    $var wire 64 ) io_ua [63:0] $end
    $var wire 64 + io_ub [63:0] $end
    $var wire  1 . lt $end
    $var wire  1 / ltu $end
   $upscope $end
   $scope module decode $end
    $var wire 64 1 io_imm [63:0] $end
    $var wire 32 ' io_inst [31:0] $end
    $var wire  4 ( io_sig_aluop [3:0] $end
    $var wire  1 3 io_sig_asel $end
    $var wire  5 6 io_sig_brCond [4:0] $end
    $var wire  1 4 io_sig_bsel $end
    $var wire  1 8 io_sig_cut32 $end
    $var wire  1 u! io_sig_err $end
    $var wire  1 7 io_sig_isJal $end
    $var wire  1 3! io_sig_memEn $end
    $var wire  1 4! io_sig_memWe $end
    $var wire  2 x! io_sig_osel [1:0] $end
    $var wire  1 5 io_sig_rdWe $end
   $upscope $end
   $scope module regfile $end
    $var wire  1 ~ clock $end
    $var wire 64 5! io_gpr_0 [63:0] $end
    $var wire 64 7! io_gpr_1 [63:0] $end
    $var wire 64 I! io_gpr_10 [63:0] $end
    $var wire 64 K! io_gpr_11 [63:0] $end
    $var wire 64 M! io_gpr_12 [63:0] $end
    $var wire 64 O! io_gpr_13 [63:0] $end
    $var wire 64 Q! io_gpr_14 [63:0] $end
    $var wire 64 S! io_gpr_15 [63:0] $end
    $var wire 64 U! io_gpr_16 [63:0] $end
    $var wire 64 W! io_gpr_17 [63:0] $end
    $var wire 64 Y! io_gpr_18 [63:0] $end
    $var wire 64 [! io_gpr_19 [63:0] $end
    $var wire 64 9! io_gpr_2 [63:0] $end
    $var wire 64 ]! io_gpr_20 [63:0] $end
    $var wire 64 _! io_gpr_21 [63:0] $end
    $var wire 64 a! io_gpr_22 [63:0] $end
    $var wire 64 c! io_gpr_23 [63:0] $end
    $var wire 64 e! io_gpr_24 [63:0] $end
    $var wire 64 g! io_gpr_25 [63:0] $end
    $var wire 64 i! io_gpr_26 [63:0] $end
    $var wire 64 k! io_gpr_27 [63:0] $end
    $var wire 64 m! io_gpr_28 [63:0] $end
    $var wire 64 o! io_gpr_29 [63:0] $end
    $var wire 64 ;! io_gpr_3 [63:0] $end
    $var wire 64 q! io_gpr_30 [63:0] $end
    $var wire 64 s! io_gpr_31 [63:0] $end
    $var wire 64 =! io_gpr_4 [63:0] $end
    $var wire 64 ?! io_gpr_5 [63:0] $end
    $var wire 64 A! io_gpr_6 [63:0] $end
    $var wire 64 C! io_gpr_7 [63:0] $end
    $var wire 64 E! io_gpr_8 [63:0] $end
    $var wire 64 G! io_gpr_9 [63:0] $end
    $var wire  5 ; io_rd_addr [4:0] $end
    $var wire 64 y! io_rd_data [63:0] $end
    $var wire  1 5 io_rd_we $end
    $var wire  5 9 io_rs1_addr [4:0] $end
    $var wire 64 < io_rs1_data [63:0] $end
    $var wire  5 : io_rs2_addr [4:0] $end
    $var wire 64 1! io_rs2_data [63:0] $end
    $var wire 64 > regs_0 [63:0] $end
    $var wire 64 @ regs_1 [63:0] $end
    $var wire 64 R regs_10 [63:0] $end
    $var wire 64 T regs_11 [63:0] $end
    $var wire 64 V regs_12 [63:0] $end
    $var wire 64 X regs_13 [63:0] $end
    $var wire 64 Z regs_14 [63:0] $end
    $var wire 64 \ regs_15 [63:0] $end
    $var wire 64 ^ regs_16 [63:0] $end
    $var wire 64 ` regs_17 [63:0] $end
    $var wire 64 b regs_18 [63:0] $end
    $var wire 64 d regs_19 [63:0] $end
    $var wire 64 B regs_2 [63:0] $end
    $var wire 64 f regs_20 [63:0] $end
    $var wire 64 h regs_21 [63:0] $end
    $var wire 64 j regs_22 [63:0] $end
    $var wire 64 l regs_23 [63:0] $end
    $var wire 64 n regs_24 [63:0] $end
    $var wire 64 p regs_25 [63:0] $end
    $var wire 64 r regs_26 [63:0] $end
    $var wire 64 t regs_27 [63:0] $end
    $var wire 64 v regs_28 [63:0] $end
    $var wire 64 x regs_29 [63:0] $end
    $var wire 64 D regs_3 [63:0] $end
    $var wire 64 z regs_30 [63:0] $end
    $var wire 64 | regs_31 [63:0] $end
    $var wire 64 F regs_4 [63:0] $end
    $var wire 64 H regs_5 [63:0] $end
    $var wire 64 J regs_6 [63:0] $end
    $var wire 64 L regs_7 [63:0] $end
    $var wire 64 N regs_8 [63:0] $end
    $var wire 64 P regs_9 [63:0] $end
   $upscope $end
  $upscope $end
 $upscope $end
$enddefinitions $end


#0
b1111101001110011111011110000010011101111111111000001101100011111 #
b0000101010110111111001101010000110111101010101001011001100001001 %
b11111111100111001011110011100011 '
b0000 (
b0000010001001101011111010100101000100100100011000001111101010011 )
b1111111111111111111111111111111111111111111111111111111111111001 +
b010001 -
1.
0/
00
b1111111111111111111111111111111111111111111111111111111111111001 1
03
14
05
b00000 6
07
08
b11001 9
b11001 :
b11001 ;
b0000010001001101011111010100101000100100100011000001111101010011 <
b0011111010100100101111111011001001001110111100101001101001111000 >
b1001101100010000011011111111100100001010100001111110100011101010 @
b1001010001000110100111010011000101111101111001110011100011000010 B
b1010101001110001010100010100100111011011011100110000000101010100 D
b0000110010001111101111100010110100100010101010100100100101010100 F
b0110000001101011101100110010110101101000101000001100101100100011 H
b0010001010001111101001011010000011101000011000111101000110011101 J
b1110101100111100110010100011011100100111000010000100001110110011 L
b0010111111000011111011101101001100111001101111000111111110101101 N
b0010111010111111000110100000010000110100111010010101000011010101 P
b1000111011101110100011000101111011001110101110010111101100101110 R
b0011000101101100011110011000100000001010100001111011100011001111 T
b1001101100001001101000011111101100011111111111111011001100000101 V
b0000000110100100010100001010111100100000101110001001010111010111 X
b0000110111110111100001100101000000101111110110100000010010001001 Z
b1000010000101000000111010101101111011010110010000100001011110110 \
b1011100110010110010011001011100010000110010110001001111110101111 ^
b0100001100111010101011010101010110000000111110011111010111101111 `
b0111000111001000110110101111101001011011111000000010011110011101 b
b1011100100011110100011000100010010010100111111100100001100111111 d
b0101000011001010000000000000000111011011000111001100111011001111 f
b1101101101100011101101010010100000001111011101011110001100101010 h
b1111001110101101001110110010111100001001000101001110001101110111 j
b0100011011101011101011101001101001001011100101001001101010011010 l
b0101111101011110110110111111011001011001000001101000011100001011 n
b0000010001001101011111010100101000100100100011000001111101010011 p
b0111011100101011011111101010001000011011011110000100001010101111 r
b1100011000011101001001101111011110001000111100111011100110001100 t
b1100101001110001100011100101111000010001110110101011001100000010 v
b1100010011001001101111110011110111001010100101110010101111111011 x
b1110001110110000110001101100011010011111001000000001010111101000 z
b1010111101101001110010100101111010010000000011111101100111000010 |
0~
0!!
b1110110101010111101011001011100110011110111111011101010100000010 "!
b1100000100011101111000101001110001001000110000101110000011100100 $!
b1111101001110011111011110000010011101111111111000001101100011111 &!
b11111111100111001011110011100011 (!
b1111101001110011111011110000010011101111111111000001101100011000 )!
b0000000000000000000000000000000000000000000000000000000000000000 +!
1-!
0.!
b0000010001001101011111010100101000100100100011000001111101001100 /!
b0000010001001101011111010100101000100100100011000001111101010011 1!
03!
04!
b0011111010100100101111111011001001001110111100101001101001111000 5!
b1001101100010000011011111111100100001010100001111110100011101010 7!
b1001010001000110100111010011000101111101111001110011100011000010 9!
b1010101001110001010100010100100111011011011100110000000101010100 ;!
b0000110010001111101111100010110100100010101010100100100101010100 =!
b0110000001101011101100110010110101101000101000001100101100100011 ?!
b0010001010001111101001011010000011101000011000111101000110011101 A!
b1110101100111100110010100011011100100111000010000100001110110011 C!
b0010111111000011111011101101001100111001101111000111111110101101 E!
b0010111010111111000110100000010000110100111010010101000011010101 G!
b1000111011101110100011000101111011001110101110010111101100101110 I!
b0011000101101100011110011000100000001010100001111011100011001111 K!
b1001101100001001101000011111101100011111111111111011001100000101 M!
b0000000110100100010100001010111100100000101110001001010111010111 O!
b0000110111110111100001100101000000101111110110100000010010001001 Q!
b1000010000101000000111010101101111011010110010000100001011110110 S!
b1011100110010110010011001011100010000110010110001001111110101111 U!
b0100001100111010101011010101010110000000111110011111010111101111 W!
b0111000111001000110110101111101001011011111000000010011110011101 Y!
b1011100100011110100011000100010010010100111111100100001100111111 [!
b0101000011001010000000000000000111011011000111001100111011001111 ]!
b1101101101100011101101010010100000001111011101011110001100101010 _!
b1111001110101101001110110010111100001001000101001110001101110111 a!
b0100011011101011101011101001101001001011100101001001101010011010 c!
b0101111101011110110110111111011001011001000001101000011100001011 e!
b0000010001001101011111010100101000100100100011000001111101010011 g!
b0111011100101011011111101010001000011011011110000100001010101111 i!
b1100011000011101001001101111011110001000111100111011100110001100 k!
b1100101001110001100011100101111000010001110110101011001100000010 m!
b1100010011001001101111110011110111001010100101110010101111111011 o!
b1110001110110000110001101100011010011111001000000001010111101000 q!
b1010111101101001110010100101111010010000000011111101100111000010 s!
1u!
b0000010001001101011111010100101000100100100011000001111101001100 v!
b00 x!
b0000010001001101011111010100101000100100100011000001111101001100 y!
#1
b0000000000000000000000000000000010000000000000000000000000000000 #
b1111101001110011111011110000010011101111111111000001101100011111 %
b00000000000000000000000000010011 '
b0000000000000000000000000000000000000000000000000000000000000000 )
b0000000000000000000000000000000000000000000000000000000000000000 +
b000100 -
0.
10
b0000000000000000000000000000000000000000000000000000000000000000 1
15
b00000 9
b00000 :
b00000 ;
b0000000000000000000000000000000000000000000000000000000000000000 <
1~
1!!
b0000000000000000000000000000000010000000000000000000000000000000 &!
b00000000000000000000000000010011 (!
b0000000000000000000000000000000010000000000000000000000000000000 )!
b0000000000000000000000000000000000000000000000000000000000000000 /!
b0000000000000000000000000000000000000000000000000000000000000000 1!
0u!
b0000000000000000000000000000000000000000000000000000000000000000 v!
b0000000000000000000000000000000000000000000000000000000000000000 y!
#2
0~
#3
b0000000000000000000000000000000010000000000000000000000000000100 #
b0000000000000000000000000000000010000000000000000000000000000000 %
b00000000000000000000010000010011 '
b01000 ;
1~
0!!
b0000000000000000100100010001011100000000000000000000010000010011 "!
b0000000000000000000000000000000010000000000000000000000000000100 &!
b00000000000000000000010000010011 (!
#4
0~
b0000000000000000000000000000000000000000000000000000000000000000 $!
#5
b0000000000000000000000000000000010000000000000000000000000001000 #
b0000000000000000000000000000000010000000000000000000000000000100 %
b00000000000000001001000100010111 '
b0000000000000000000000000000000010000000000000000000000000000100 )
b0000000000000000000000000000000000000000000000001001000000000000 +
b000011 -
00
b0000000000000000000000000000000000000000000000001001000000000000 1
13
b00001 9
b00010 ;
b1001101100010000011011111111100100001010100001111110100011101010 <
b0000000000000000000000000000000000000000000000000000000000000000 N
1~
b0000000000000000000000000000000010000000000000000000000000001000 &!
b00000000000000001001000100010111 (!
b0000000000000000000000000000000010000000000000000000000000001000 )!
b0000000000000000000000000000000010000000000000001001000000000100 /!
b0000000000000000000000000000000000000000000000000000000000000000 E!
b0000000000000000000000000000000010000000000000001001000000000100 v!
b0000000000000000000000000000000010000000000000001001000000000100 y!
#6
0~
#7
b0000000000000000000000000000000010000000000000000000000000001100 #
b0000000000000000000000000000000010000000000000000000000000001000 %
b11111111110000010000000100010011 '
b0000000000000000000000000000000010000000000000001001000000000100 )
b1111111111111111111111111111111111111111111111111111111111111100 +
b010001 -
1.
b1111111111111111111111111111111111111111111111111111111111111100 1
03
b00010 9
b11100 :
b0000000000000000000000000000000010000000000000001001000000000100 <
b0000000000000000000000000000000010000000000000001001000000000100 B
1~
b0000000001000000000000001110111111111111110000010000000100010011 "!
b0000000000000000000000000000000010000000000000000000000000001100 &!
b11111111110000010000000100010011 (!
b0000000000000000000000000000000010000000000000001001000000000000 /!
b1100101001110001100011100101111000010001110110101011001100000010 1!
b0000000000000000000000000000000010000000000000001001000000000100 9!
b0000000000000000000000000000000010000000000000001001000000000000 v!
b0000000000000000000000000000000010000000000000001001000000000000 y!
#8
0~
#9
b0000000000000000000000000000000010000000000000000000000000010000 #
b0000000000000000000000000000000010000000000000000000000000001100 %
b00000000010000000000000011101111 '
b1111 (
b0000000000000000000000000000000010000000000000000000000000001100 )
b0000000000000000000000000000000000000000000000000000000000000100 +
b000011 -
0.
b0000000000000000000000000000000000000000000000000000000000000100 1
13
b11111 6
17
b00000 9
b00100 :
b00001 ;
b0000000000000000000000000000000000000000000000000000000000000000 <
b0000000000000000000000000000000010000000000000001001000000000000 B
1~
b0000000000000000000000000000000010000000000000000000000000010000 &!
b00000000010000000000000011101111 (!
b0000000000000000000000000000000010000000000000000000000000010000 )!
b0000000000000000000000000000000000000000000000000000000000000000 /!
b0000110010001111101111100010110100100010101010100100100101010100 1!
b0000000000000000000000000000000010000000000000001001000000000000 9!
b0000000000000000000000000000000000000000000000000000000000000000 v!
b0000000000000000000000000000000000000000000000000000000000000000 y!
#10
0~
#11
b0000000000000000000000000000000010000000000000000000000000010100 #
b0000000000000000000000000000000010000000000000000000000000010000 %
b00000000010100000000011110010011 '
b0000 (
b0000000000000000000000000000000000000000000000000000000000000000 )
b0000000000000000000000000000000000000000000000000000000000000101 +
b011000 -
1.
1/
b0000000000000000000000000000000000000000000000000000000000000101 1
03
b00000 6
07
b00101 :
b01111 ;
b0000000000000000000000000000000000000000000000000000000000000000 @
1~
b0000000111010111100101111001001100000000010100000000011110010011 "!
b0000000000000000000000000000000010000000000000000000000000010100 &!
b00000000010100000000011110010011 (!
b0000000000000000000000000000000000000000000000000000000000000101 /!
b0110000001101011101100110010110101101000101000001100101100100011 1!
b0000000000000000000000000000000000000000000000000000000000000000 7!
b0000000000000000000000000000000000000000000000000000000000000101 v!
b0000000000000000000000000000000000000000000000000000000000000101 y!
#12
0~
#13
b0000000000000000000000000000000010000000000000000000000000011000 #
b0000000000000000000000000000000010000000000000000000000000010100 %
b00000001110101111001011110010011 '
b0001 (
b0000000000000000000000000000000000000000000000000000000000000101 )
b0000000000000000000000000000000000000000000000000000000000011101 +
b0000000000000000000000000000000000000000000000000000000000011101 1
b01111 9
b11101 :
b0000000000000000000000000000000000000000000000000000000000000101 <
b0000000000000000000000000000000000000000000000000000000000000101 \
1~
b0000000000000000000000000000000010000000000000000000000000011000 &!
b00000001110101111001011110010011 (!
b0000000000000000000000000000000010000000000000000000000000011000 )!
b0000000000000000000000000000000010100000000000000000000000000000 /!
b1100010011001001101111110011110111001010100101110010101111111011 1!
b0000000000000000000000000000000000000000000000000000000000000101 S!
b0000000000000000000000000000000010100000000000000000000000000000 v!
b0000000000000000000000000000000010100000000000000000000000000000 y!
#14
0~
#15
b0000000000000000000000000000000010000000000000000000000000011100 #
b0000000000000000000000000000000010000000000000000000000000011000 %
b00000100100000000000011100010011 '
b0000 (
b0000000000000000000000000000000000000000000000000000000000000000 )
b0000000000000000000000000000000000000000000000000000000001001000 +
b0000000000000000000000000000000000000000000000000000000001001000 1
b00000 9
b01000 :
b01110 ;
b0000000000000000000000000000000000000000000000000000000000000000 <
b0000000000000000000000000000000010100000000000000000000000000000 \
1~
b0000010011100111101101000010001100000100100000000000011100010011 "!
b0000000000000000000000000000000010000000000000000000000000011100 &!
b00000100100000000000011100010011 (!
b0000000000000000000000000000000000000000000000000000000001001000 /!
b0000000000000000000000000000000000000000000000000000000000000000 1!
b0000000000000000000000000000000010100000000000000000000000000000 S!
b0000000000000000000000000000000000000000000000000000000001001000 v!
b0000000000000000000000000000000000000000000000000000000001001000 y!
#16
0~
#17
b0000000000000000000000000000000010000000000000000000000000100000 #
b0000000000000000000000000000000010000000000000000000000000011100 %
b00000100111001111011010000100011 '
b0000000000000000000000000000000010100000000000000000000000000000 )
b000011 -
0.
0/
05
b01111 9
b01110 :
b01000 ;
b0000000000000000000000000000000010100000000000000000000000000000 <
b0000000000000000000000000000000000000000000000000000000001001000 Z
1~
b0000000000000000000000000000000010000000000000000000000000100000 &!
b00000100111001111011010000100011 (!
b0000000000000000000000000000000010000000000000000000000000100000 )!
b0000000000000000000000000000000010100000000000000000000001001000 /!
b0000000000000000000000000000000000000000000000000000000001001000 1!
13!
14!
b0000000000000000000000000000000000000000000000000000000001001000 Q!
b0000000000000000000000000000000000000000000000000000000000000000 v!
b01 x!
b0000000000000000000000000000000000000000000000000000000000000000 y!
#18
0~
b0000000000000000000000000000000000000000000000000000000001001000 $!
b0000000000000000000000000000000000000000000000000000000001001000 v!
b0000000000000000000000000000000000000000000000000000000001001000 y!
#19
b0000000000000000000000000000000010000000000000000000000000100100 #
b0000000000000000000000000000000010000000000000000000000000100000 %
b00000110010100000000011100010011 '
b0000000000000000000000000000000000000000000000000000000000000000 )
b0000000000000000000000000000000000000000000000000000000001100101 +
b011000 -
1.
1/
b0000000000000000000000000000000000000000000000000000000001100101 1
15
b00000 9
b00101 :
b01110 ;
b0000000000000000000000000000000000000000000000000000000000000000 <
1~
b0000010011100111101101000010001100000110010100000000011100010011 "!
b0000000000000000000000000000000010000000000000000000000000100100 &!
b00000110010100000000011100010011 (!
b0000000000000000000000000000000000000000000000000000000001100101 /!
b0110000001101011101100110010110101101000101000001100101100100011 1!
03!
04!
b0000000000000000000000000000000000000000000000000000000001100101 v!
b00 x!
b0000000000000000000000000000000000000000000000000000000001100101 y!
#20
0~
b0000000000000000000000000000000000000000000000000000000000000000 $!
#21
b0000000000000000000000000000000010000000000000000000000000101000 #
b0000000000000000000000000000000010000000000000000000000000100100 %
b00000100111001111011010000100011 '
b0000000000000000000000000000000010100000000000000000000000000000 )
b0000000000000000000000000000000000000000000000000000000001001000 +
b000011 -
0.
0/
b0000000000000000000000000000000000000000000000000000000001001000 1
05
b01111 9
b01110 :
b01000 ;
b0000000000000000000000000000000010100000000000000000000000000000 <
b0000000000000000000000000000000000000000000000000000000001100101 Z
1~
b0000000000000000000000000000000010000000000000000000000000101000 &!
b00000100111001111011010000100011 (!
b0000000000000000000000000000000010000000000000000000000000101000 )!
b0000000000000000000000000000000010100000000000000000000001001000 /!
b0000000000000000000000000000000000000000000000000000000001100101 1!
13!
14!
b0000000000000000000000000000000000000000000000000000000001100101 Q!
b0000000000000000000000000000000000000000000000000000000000000000 v!
b01 x!
b0000000000000000000000000000000000000000000000000000000000000000 y!
#22
0~
b0000000000000000000000000000000000000000000000000000000001100101 $!
b0000000000000000000000000000000000000000000000000000000001100101 v!
b0000000000000000000000000000000000000000000000000000000001100101 y!
#23
b0000000000000000000000000000000010000000000000000000000000101100 #
b0000000000000000000000000000000010000000000000000000000000101000 %
b00000110110000000000011100010011 '
b0000000000000000000000000000000000000000000000000000000000000000 )
b0000000000000000000000000000000000000000000000000000000001101100 +
b011000 -
1.
1/
b0000000000000000000000000000000000000000000000000000000001101100 1
15
b00000 9
b01100 :
b01110 ;
b0000000000000000000000000000000000000000000000000000000000000000 <
1~
b0000010011100111101101000010001100000110110000000000011100010011 "!
b0000000000000000000000000000000010000000000000000000000000101100 &!
b00000110110000000000011100010011 (!
b0000000000000000000000000000000000000000000000000000000001101100 /!
b1001101100001001101000011111101100011111111111111011001100000101 1!
03!
04!
b0000000000000000000000000000000000000000000000000000000001101100 v!
b00 x!
b0000000000000000000000000000000000000000000000000000000001101100 y!
#24
0~
b0000000000000000000000000000000000000000000000000000000000000000 $!
#25
b0000000000000000000000000000000010000000000000000000000000110000 #
b0000000000000000000000000000000010000000000000000000000000101100 %
b00000100111001111011010000100011 '
b0000000000000000000000000000000010100000000000000000000000000000 )
b0000000000000000000000000000000000000000000000000000000001001000 +
b000011 -
0.
0/
b0000000000000000000000000000000000000000000000000000000001001000 1
05
b01111 9
b01110 :
b01000 ;
b0000000000000000000000000000000010100000000000000000000000000000 <
b0000000000000000000000000000000000000000000000000000000001101100 Z
1~
b0000000000000000000000000000000010000000000000000000000000110000 &!
b00000100111001111011010000100011 (!
b0000000000000000000000000000000010000000000000000000000000110000 )!
b0000000000000000000000000000000010100000000000000000000001001000 /!
b0000000000000000000000000000000000000000000000000000000001101100 1!
13!
14!
b0000000000000000000000000000000000000000000000000000000001101100 Q!
b0000000000000000000000000000000000000000000000000000000000000000 v!
b01 x!
b0000000000000000000000000000000000000000000000000000000000000000 y!
#26
0~
b0000000000000000000000000000000000000000000000000000000001101100 $!
b0000000000000000000000000000000000000000000000000000000001101100 v!
b0000000000000000000000000000000000000000000000000000000001101100 y!
#27
b0000000000000000000000000000000010000000000000000000000000110100 #
b0000000000000000000000000000000010000000000000000000000000110000 %
1~
b0000011011110000000001101001001100000100111001111011010000100011 "!
b0000000000000000000000000000000010000000000000000000000000110100 &!
#28
0~
#29
b0000000000000000000000000000000010000000000000000000000000111000 #
b0000000000000000000000000000000010000000000000000000000000110100 %
b00000110111100000000011010010011 '
b0000000000000000000000000000000000000000000000000000000000000000 )
b0000000000000000000000000000000000000000000000000000000001101111 +
b011000 -
1.
1/
b0000000000000000000000000000000000000000000000000000000001101111 1
15
b00000 9
b01111 :
b01101 ;
b0000000000000000000000000000000000000000000000000000000000000000 <
1~
b0000000000000000000000000000000010000000000000000000000000111000 &!
b00000110111100000000011010010011 (!
b0000000000000000000000000000000010000000000000000000000000111000 )!
b0000000000000000000000000000000000000000000000000000000001101111 /!
b0000000000000000000000000000000010100000000000000000000000000000 1!
03!
04!
b0000000000000000000000000000000000000000000000000000000001101111 v!
b00 x!
b0000000000000000000000000000000000000000000000000000000001101111 y!
#30
0~
b0000000000000000000000000000000000000000000000000000000000000000 $!
#31
b0000000000000000000000000000000010000000000000000000000000111100 #
b0000000000000000000000000000000010000000000000000000000000111000 %
b00000100110101111011010000100011 '
b0000000000000000000000000000000010100000000000000000000000000000 )
b0000000000000000000000000000000000000000000000000000000001001000 +
b000011 -
0.
0/
b0000000000000000000000000000000000000000000000000000000001001000 1
05
b01111 9
b01101 :
b01000 ;
b0000000000000000000000000000000010100000000000000000000000000000 <
b0000000000000000000000000000000000000000000000000000000001101111 X
1~
b0000011101110000000001100001001100000100110101111011010000100011 "!
b0000000000000000000000000000000010000000000000000000000000111100 &!
b00000100110101111011010000100011 (!
b0000000000000000000000000000000010100000000000000000000001001000 /!
b0000000000000000000000000000000000000000000000000000000001101111 1!
13!
14!
b0000000000000000000000000000000000000000000000000000000001101111 O!
b0000000000000000000000000000000000000000000000000000000000000000 v!
b01 x!
b0000000000000000000000000000000000000000000000000000000000000000 y!
#32
0~
b0000000000000000000000000000000000000000000000000000000001101111 $!
b0000000000000000000000000000000000000000000000000000000001101111 v!
b0000000000000000000000000000000000000000000000000000000001101111 y!
#33
b0000000000000000000000000000000010000000000000000000000001000000 #
b0000000000000000000000000000000010000000000000000000000000111100 %
b00000111011100000000011000010011 '
b0000000000000000000000000000000000000000000000000000000000000000 )
b0000000000000000000000000000000000000000000000000000000001110111 +
b011000 -
1.
1/
b0000000000000000000000000000000000000000000000000000000001110111 1
15
b00000 9
b10111 :
b01100 ;
b0000000000000000000000000000000000000000000000000000000000000000 <
1~
b0000000000000000000000000000000010000000000000000000000001000000 &!
b00000111011100000000011000010011 (!
b0000000000000000000000000000000010000000000000000000000001000000 )!
b0000000000000000000000000000000000000000000000000000000001110111 /!
b0100011011101011101011101001101001001011100101001001101010011010 1!
03!
04!
b0000000000000000000000000000000000000000000000000000000001110111 v!
b00 x!
b0000000000000000000000000000000000000000000000000000000001110111 y!
#34
0~
b0000000000000000000000000000000000000000000000000000000000000000 $!
#35
b0000000000000000000000000000000010000000000000000000000001000100 #
b0000000000000000000000000000000010000000000000000000000001000000 %
b00000100110001111011010000100011 '
b0000000000000000000000000000000010100000000000000000000000000000 )
b0000000000000000000000000000000000000000000000000000000001001000 +
b000011 -
0.
0/
b0000000000000000000000000000000000000000000000000000000001001000 1
05
b01111 9
b01100 :
b01000 ;
b0000000000000000000000000000000010100000000000000000000000000000 <
b0000000000000000000000000000000000000000000000000000000001110111 V
1~
b0000010011010111101101000010001100000100110001111011010000100011 "!
b0000000000000000000000000000000010000000000000000000000001000100 &!
b00000100110001111011010000100011 (!
b0000000000000000000000000000000010100000000000000000000001001000 /!
b0000000000000000000000000000000000000000000000000000000001110111 1!
13!
14!
b0000000000000000000000000000000000000000000000000000000001110111 M!
b0000000000000000000000000000000000000000000000000000000000000000 v!
b01 x!
b0000000000000000000000000000000000000000000000000000000000000000 y!
#36
0~
b0000000000000000000000000000000000000000000000000000000001110111 $!
b0000000000000000000000000000000000000000000000000000000001110111 v!
b0000000000000000000000000000000000000000000000000000000001110111 y!
#37
b0000000000000000000000000000000010000000000000000000000001001000 #
b0000000000000000000000000000000010000000000000000000000001000100 %
b00000100110101111011010000100011 '
b01101 :
1~
b0000000000000000000000000000000010000000000000000000000001001000 &!
b00000100110101111011010000100011 (!
b0000000000000000000000000000000010000000000000000000000001001000 )!
b0000000000000000000000000000000000000000000000000000000001101111 1!
#38
0~
b0000000000000000000000000000000000000000000000000000000001101111 $!
b0000000000000000000000000000000000000000000000000000000001101111 v!
b0000000000000000000000000000000000000000000000000000000001101111 y!
